  [
    {
        "key": "group_633d754008fcb",
        "title": "Générer un block",
        "fields": [
            {
                "key": "field_633d7c081d0bb",
                "label": "Généré le block",
                "name": "generate_block",
                "type": "true_false",
                "instructions": "",
                "required": 0,
                "conditional_logic": 0,
                "wrapper": {
                    "width": "30",
                    "class": "",
                    "id": ""
                },
                "message": "",
                "default_value": 0,
                "ui": 0,
                "ui_on_text": "",
                "ui_off_text": ""
            },
            {
                "key": "field_633d75511d1a6",
                "label": "Nom du block",
                "name": "block_name",
                "type": "text",
                "instructions": "",
                "required": 0,
                "conditional_logic": 0,
                "wrapper": {
                    "width": "70",
                    "class": "",
                    "id": ""
                },
                "default_value": "",
                "placeholder": "",
                "prepend": "",
                "append": "",
                "maxlength": ""
            },
            {
                "key": "field_633d9009f25e6",
                "label": "Paramètres",
                "name": "params",
                "type": "group",
                "instructions": "",
                "required": 0,
                "conditional_logic": 0,
                "wrapper": {
                    "width": "",
                    "class": "",
                    "id": ""
                },
                "layout": "block",
                "sub_fields": [
                    {
                        "key": "field_633d9051f25e8",
                        "label": "Titre",
                        "name": "title",
                        "type": "text",
                        "instructions": "",
                        "required": 0,
                        "conditional_logic": 0,
                        "wrapper": {
                            "width": "20",
                            "class": "",
                            "id": ""
                        },
                        "default_value": "",
                        "placeholder": "",
                        "prepend": "",
                        "append": "",
                        "maxlength": ""
                    },
                    {
                        "key": "field_633d8e8a400b6",
                        "label": "Description",
                        "name": "description",
                        "type": "text",
                        "instructions": "",
                        "required": 0,
                        "conditional_logic": 0,
                        "wrapper": {
                            "width": "60",
                            "class": "",
                            "id": ""
                        },
                        "default_value": "",
                        "placeholder": "",
                        "prepend": "",
                        "append": "",
                        "maxlength": ""
                    },
                    {
                        "key": "field_633d8f54400bb",
                        "label": "Icon",
                        "name": "icon",
                        "type": "text",
                        "instructions": "",
                        "required": 0,
                        "conditional_logic": 0,
                        "wrapper": {
                            "width": "20",
                            "class": "",
                            "id": ""
                        },
                        "default_value": "dashicons-carrot",
                        "placeholder": "",
                        "prepend": "",
                        "append": "",
                        "maxlength": ""
                    },
                    {
                        "key": "field_633d8e19400b5",
                        "label": "align",
                        "name": "align",
                        "type": "select",
                        "instructions": "",
                        "required": 0,
                        "conditional_logic": 0,
                        "wrapper": {
                            "width": "20",
                            "class": "",
                            "id": ""
                        },
                        "choices": {
                            "wide": "wide",
                            "full": "full",
                            "right": "right",
                            "left": "left",
                            "center": "center"
                        },
                        "default_value": false,
                        "allow_null": 0,
                        "multiple": 0,
                        "ui": 0,
                        "return_format": "value",
                        "ajax": 0,
                        "placeholder": ""
                    },
                    {
                        "key": "field_633d8e9f400b7",
                        "label": "categorie",
                        "name": "category",
                        "type": "text",
                        "instructions": "",
                        "required": 0,
                        "conditional_logic": 0,
                        "wrapper": {
                            "width": "20",
                            "class": "",
                            "id": ""
                        },
                        "default_value": "ng1-blocks",
                        "placeholder": "",
                        "prepend": "",
                        "append": "",
                        "maxlength": ""
                    },
                    {
                        "key": "field_633d8ecd400b8",
                        "label": "keywords",
                        "name": "keywords",
                        "type": "text",
                        "instructions": "",
                        "required": 0,
                        "conditional_logic": 0,
                        "wrapper": {
                            "width": "40",
                            "class": "",
                            "id": ""
                        },
                        "default_value": "['ng1', 'block']",
                        "placeholder": "",
                        "prepend": "",
                        "append": "",
                        "maxlength": ""
                    },
                    {
                        "key": "field_633d8eee400b9",
                        "label": "Div conteneur",
                        "name": "withoutContainer",
                        "type": "select",
                        "instructions": "",
                        "required": 0,
                        "conditional_logic": 0,
                        "wrapper": {
                            "width": "20",
                            "class": "",
                            "id": ""
                        },
                        "choices": {
                            "true": "Sans",
                            "false": "Avec"
                        },
                        "default_value": false,
                        "allow_null": 0,
                        "multiple": 0,
                        "ui": 0,
                        "return_format": "value",
                        "ajax": 0,
                        "placeholder": ""
                    },
                    {
                        "key": "field_633d8f30400ba",
                        "label": "Div wrapper",
                        "name": "withoutWrapper",
                        "type": "select",
                        "instructions": "",
                        "required": 0,
                        "conditional_logic": 0,
                        "wrapper": {
                            "width": "20",
                            "class": "",
                            "id": ""
                        },
                        "choices": {
                            "true": "Sans",
                            "false": "Avec"
                        },
                        "default_value": false,
                        "allow_null": 0,
                        "multiple": 0,
                        "ui": 0,
                        "return_format": "value",
                        "ajax": 0,
                        "placeholder": ""
                    },
                    {
                        "key": "field_633d75591d1a7",
                        "label": "Utiliser le css",
                        "name": "use_css",
                        "type": "select",
                        "instructions": "",
                        "required": 0,
                        "conditional_logic": 0,
                        "wrapper": {
                            "width": "20",
                            "class": "",
                            "id": ""
                        },
                        "choices": {
                            "true": "Avec",
                            "false": "Sans"
                        },
                        "default_value": false,
                        "allow_null": 0,
                        "multiple": 0,
                        "ui": 0,
                        "return_format": "value",
                        "ajax": 0,
                        "placeholder": ""
                    },
                    {
                        "key": "field_633d75761d1a8",
                        "label": "Utiliser le js",
                        "name": "use_js",
                        "type": "select",
                        "instructions": "",
                        "required": 0,
                        "conditional_logic": 0,
                        "wrapper": {
                            "width": "20",
                            "class": "",
                            "id": ""
                        },
                        "choices": {
                            "true": "Avec",
                            "false": "Sans"
                        },
                        "default_value": false,
                        "allow_null": 0,
                        "multiple": 0,
                        "ui": 0,
                        "return_format": "value",
                        "ajax": 0,
                        "placeholder": ""
                    }
                ]
            }
        ],
        "location": [
            [
                {
                    "param": "options_page",
                    "operator": "==",
                    "value": "ng1-create-block"
                }
            ]
        ],
        "menu_order": 0,
        "position": "normal",
        "style": "default",
        "label_placement": "top",
        "instruction_placement": "label",
        "hide_on_screen": "",
        "active": true,
        "description": "",
        "show_in_rest": 0
    }
]